[
  {
    "uuid": "a312ac4b-2140-3708-aca8-867d616810df",
    "name": "Nitorac",
    "level": 4,
    "bypassesPlayerLimit": false
  },
  {
    "uuid": "5f711a02-543b-444b-96bc-8a5f5b06234d",
    "name": "Nitorac",
    "level": 4,
    "bypassesPlayerLimit": false
  }
]